Session 6: Homework 3
…
# hypothesize H0 (use independence because we have two samples)

  hypothesize(null="independence") %>% 

# generate replicates

  generate(reps=1000, type="permute") %>% 

# calculate summary statistics
  
  calculate(stat = "diff in means", order = c("male","female"))

null_distribution

## # A tibble: 1,000 x 2
##    replicate   stat
##        <int>  <dbl>
##  1         1  1184.
##  2         2  3911.
##  3         3 -1824.
##  4         4 -2651.
##  5         5  2969.
##  6         6 -3808.
##  7         7  2258.
##  8         8   250.
##  9         9 -2750.
## 10        10  2622.
## # ... with 990 more rows
…
# hypothesize H0 (use independence because we have only one dataset)

  hypothesize(null="independence") %>% 

# generate replicates

  generate(reps=1000, type="permute") %>% 

# calculate summary statistics
  
  calculate(stat = "diff in means", order = c("male","female"))

null_distribution

## # A tibble: 1,000 x 2
##    replicate   stat
##        <int>  <dbl>
##  1         1  1184.
##  2         2  3911.
##  3         3 -1824.
##  4         4 -2651.
##  5         5  2969.
##  6         6 -3808.
##  7         7  2258.
##  8         8   250.
##  9         9 -2750.
## 10        10  2622.
## # ... with 990 more rows
…
yield_curve_year <- yield_curve %>%
  mutate(year = year(date), day = day(date), month = month(date), num_maturity = as.integer(maturity)) %>%
  filter (year > 1998, day == 1) %>%
  group_by(month)

yield_curve_year

## # A tibble: 2,610 x 9
## # Groups:   month [12]
##    symbol date       price var           maturity  year   day month num_maturity
##    <chr>  <date>     <dbl> <fct>         <fct>    <dbl> <int> <dbl>        <int>
##  1 TB3MS  1999-01-01  4.34 3-Month Trea~ 3m        1999     1     1            1
##  2 TB3MS  1999-02-01  4.44 3-Month Trea~ 3m        1999     1     2            1
##  3 TB3MS  1999-03-01  4.44 3-Month Trea~ 3m        1999     1     3            1
##  4 TB3MS  1999-04-01  4.29 3-Month Trea~ 3m        1999     1     4            1
##  5 TB3MS  1999-05-01  4.5  3-Month Trea~ 3m        1999     1     5            1
##  6 TB3MS  1999-06-01  4.57 3-Month Trea~ 3m        1999     1     6            1
##  7 TB3MS  1999-07-01  4.55 3-Month Trea~ 3m        1999     1     7            1
##  8 TB3MS  1999-08-01  4.72 3-Month Trea~ 3m        1999     1     8            1
##  9 TB3MS  1999-09-01  4.68 3-Month Trea~ 3m        1999     1     9            1
## 10 TB3MS  1999-10-01  4.86 3-Month Trea~ 3m        1999     1    10            1
## # ... with 2,600 more rows
…
yield_curve_1999 <- yield_curve %>%
  mutate(year = year(date)) %>%
  filter(year > 1998, var %in% c("3-Month Treasury Bill", "10-Year Treasury Rate"))

yield_curve_1999

## # A tibble: 522 x 6
##    symbol date       price var                   maturity  year
##    <chr>  <date>     <dbl> <fct>                 <fct>    <dbl>
##  1 TB3MS  1999-01-01  4.34 3-Month Treasury Bill 3m        1999
##  2 TB3MS  1999-02-01  4.44 3-Month Treasury Bill 3m        1999
##  3 TB3MS  1999-03-01  4.44 3-Month Treasury Bill 3m        1999
##  4 TB3MS  1999-04-01  4.29 3-Month Treasury Bill 3m        1999
##  5 TB3MS  1999-05-01  4.5  3-Month Treasury Bill 3m        1999
##  6 TB3MS  1999-06-01  4.57 3-Month Treasury Bill 3m        1999
##  7 TB3MS  1999-07-01  4.55 3-Month Treasury Bill 3m        1999
##  8 TB3MS  1999-08-01  4.72 3-Month Treasury Bill 3m        1999
##  9 TB3MS  1999-09-01  4.68 3-Month Treasury Bill 3m        1999
## 10 TB3MS  1999-10-01  4.86 3-Month Treasury Bill 3m        1999
## # ... with 512 more rows
…
yield_curve_recessions <- yield_curve %>%
  select(date, price, var) %>%
  filter(var %in% c("3-Month Treasury Bill", "10-Year Treasury Rate")) %>%
  spread(var, price) %>%
  rename_with(~ tolower(gsub("-", "", .x, fixed = TRUE))) %>%
  rename_with(~ tolower(gsub("10", "ten", .x, fixed = TRUE))) %>%
  rename_with(~ tolower(gsub("3", "three", .x, fixed = TRUE))) %>%
  rename_with(~ tolower(gsub(" ", "_", .x, fixed = TRUE))) %>%
  mutate(spread = tenyear_treasury_rate - threemonth_treasury_bill)

yield_curve_recessions

## # A tibble: 729 x 4
##    date       threemonth_treasury_bill tenyear_treasury_rate spread
##    <date>                        <dbl>                 <dbl>  <dbl>
##  1 1960-01-01                     4.35                  4.72   0.37
##  2 1960-02-01                     3.96                  4.49   0.53
##  3 1960-03-01                     3.31                  4.25   0.94
##  4 1960-04-01                     3.23                  4.28   1.05
##  5 1960-05-01                     3.29                  4.35   1.06
##  6 1960-06-01                     2.46                  4.15   1.69
##  7 1960-07-01                     2.3                   3.9    1.6 
##  8 1960-08-01                     2.3                   3.8    1.5 
##  9 1960-09-01                     2.48                  3.8    1.32
## 10 1960-10-01                     2.3                   3.89   1.59
## # ... with 719 more rows
…
